\relax 
\citation{shell:1979}
\@writefile{toc}{\contentsline {section}{\numberline {1}Introduction}{1}}
\@writefile{toc}{\contentsline {section}{\numberline {2}Introsort}{1}}
\@writefile{toc}{\contentsline {section}{\numberline {3}Benchmark set-up}{1}}
\@writefile{loa}{\contentsline {algorithm}{\numberline {1}{\ignorespaces Introsort algorithm}}{2}}
\@writefile{lol}{\contentsline {lstlisting}{[}{2}}
\@writefile{toc}{\contentsline {section}{\numberline {4}Results}{2}}
\pgfsyspdfmark {pgfid2}{12824262}{18235331}
\pgfsyspdfmark {pgfid1}{10086891}{16152646}
\@writefile{lof}{\contentsline {figure}{\numberline {1}{\ignorespaces Comparison between different sorting algorithms}}{2}}
\newlabel{fig:bench_sort}{{1}{2}}
\newlabel{fig:bench_sort@cref}{{[figure][1][]1}{2}}
\bibstyle{plain}
\bibdata{bibliography}
\@writefile{toc}{\contentsline {section}{\numberline {5}Concluding remarks}{3}}
